47 27 platform
47 28 platform
47 29 platform
47 30 platform
47 31 platform
47 32 platform
47 33 platform
47 34 platform
47 35 platform
47 36 platform
47 37 platform
47 38 platform
47 39 platform
47 40 platform
47 41 platform
48 27 platform
48 30 
48 31 
48 32 
48 33 coin
48 34 coin
48 35 coin
48 36 coin
48 37 coin
48 38 coin
48 39 louSpawn
48 41 platform
49 27 platform
49 32 
49 33 coin
49 34 coin
49 35 coin
49 36 coin
49 37 coin
49 38 coin
49 41 platform
50 27 platform
50 32 
50 33 coin
50 34 coin
50 35 coin
50 36 coin
50 37 coin
50 38 coin
50 39 andySpawn
50 41 platform
51 27 platform
51 32 
51 33 coin
51 34 coin
51 35 coin
51 36 coin
51 37 coin
51 38 coin
51 41 platform
52 27 platform
52 32 
52 33 coin
52 34 coin
52 35 coin
52 36 coin
52 37 coin
52 38 coin
52 41 platform
53 27 platform
53 32 
53 33 coin
53 34 coin
53 35 coin
53 36 coin
53 37 coin
53 38 coin
53 41 platform
54 25 
54 26 
54 27 platform
54 32 
54 33 coin
54 34 coin
54 35 coin
54 36 coin
54 37 coin
54 38 coin
54 41 platform
55 25 
55 26 
55 27 platform
55 32 
55 33 coin
55 34 coin
55 35 coin
55 36 coin
55 37 coin
55 38 brickSpawn
55 41 platform
56 26 
56 27 platform
56 32 
56 33 coin
56 34 coin
56 35 coin
56 36 coin
56 37 coin
56 38 coin
56 41 platform
57 26 
57 27 platform
57 32 
57 33 coin
57 34 coin
57 35 coin
57 36 coin
57 37 coin
57 38 coin
57 41 platform
58 26 
58 27 platform
58 32 
58 33 coin
58 34 coin
58 35 coin
58 36 coin
58 37 coin
58 38 coin
58 41 platform
59 26 
59 27 platform
59 32 
59 33 coin
59 34 coin
59 35 coin
59 36 coin
59 37 coin
59 38 coin
59 41 platform
60 27 platform
60 32 
60 33 coin
60 34 coin
60 35 coin
60 36 coin
60 37 steveSpawn
60 38 coin
60 41 platform
61 27 platform
61 32 
61 33 coin
61 34 coin
61 35 coin
61 36 coin
61 37 coin
61 38 coin
61 41 platform
62 27 platform
62 32 
62 33 coin
62 34 coin
62 35 coin
62 36 coin
62 37 coin
62 38 coin
62 41 platform
63 27 platform
63 32 
63 33 coin
63 34 coin
63 35 coin
63 36 coin
63 37 AndyDoor
63 38 AndyDoor
63 41 platform
64 27 platform
64 32 
64 33 coin
64 34 BrickDoor
64 35 BrickDoor
64 36 BrickDoor
64 37 AndyDoor
64 38 AndyDoor
64 41 platform
65 27 platform
65 32 
65 33 coin
65 34 BrickDoor
65 35 BrickDoor
65 36 BrickDoor
65 37 AndyDoor
65 38 AndyDoor
65 39 LouDoor
65 40 LouDoor
65 41 platform
66 27 platform
66 29 SteveDoor
66 30 SteveDoor
66 31 SteveDoor
66 32 SteveDoor
66 33 SteveDoor
66 34 BrickDoor
66 35 BrickDoor
66 36 BrickDoor
66 37 AndyDoor
66 38 AndyDoor
66 39 LouDoor
66 40 LouDoor
66 41 platform
67 27 platform
67 28 platform
67 29 platform
67 30 platform
67 31 platform
67 32 platform
67 33 platform
67 34 platform
67 35 platform
67 36 platform
67 37 platform
67 38 platform
67 39 platform
67 40 platform
67 41 platform
