30 20 platform
30 21 platform
30 22 platform
30 23 platform
30 24 platform
30 25 platform
30 26 platform
30 27 platform
30 28 platform
30 29 platform
30 30 platform
30 31 platform
30 32 platform
30 33 platform
30 34 platform
30 35 platform
30 36 platform
30 37 platform
30 38 platform
30 39 platform
30 40 platform
30 41 platform
30 42 platform
30 43 platform
30 44 platform
30 45 platform
30 46 platform
30 47 platform
30 48 platform
30 49 platform
30 50 platform
30 51 platform
30 52 platform
30 53 platform
30 54 platform
30 55 platform
30 56 platform
30 57 platform
31 20 platform
31 21 SteveDoor
31 22 SteveDoor
31 23 SteveDoor
31 24 SteveDoor
31 25 platform
31 26 spike
31 36 coin
31 37 platform
31 38 spike
31 51 coin
31 52 platform
31 53 spike
31 57 platform
32 20 platform
32 24 coin
32 25 platform
32 26 spike
32 36 coin
32 37 platform
32 38 spike
32 51 coin
32 52 platform
32 53 spike
32 57 platform
33 20 platform
33 24 coin
33 25 platform
33 26 spike
33 36 coin
33 37 platform
33 38 spike
33 51 coin
33 52 platform
33 53 spike
33 57 platform
34 20 platform
34 36 coin
34 37 platform
34 38 spike
34 57 platform
35 20 platform
35 57 platform
36 20 platform
36 57 platform
37 20 platform
37 57 platform
38 20 platform
38 57 platform
39 20 platform
39 30 coin
39 31 platform
39 32 spike
39 44 coin
39 45 platform
39 46 spike
39 57 platform
40 20 platform
40 30 coin
40 31 platform
40 32 spike
40 44 coin
40 45 platform
40 46 spike
40 57 platform
41 20 platform
41 30 coin
41 31 platform
41 32 spike
41 44 coin
41 45 platform
41 46 spike
41 57 platform
42 20 platform
42 30 coin
42 31 platform
42 32 spike
42 44 coin
42 45 platform
42 46 spike
42 57 platform
43 20 platform
43 21 platform
43 22 platform
43 23 platform
43 24 platform
43 25 platform
43 26 platform
43 27 platform
43 28 platform
43 29 platform
43 30 platform
43 31 platform
43 32 platform
43 33 platform
43 34 platform
43 35 platform
43 36 platform
43 37 platform
43 38 platform
43 39 platform
43 40 platform
43 41 platform
43 42 platform
43 43 platform
43 44 platform
43 45 platform
43 46 platform
43 47 platform
43 48 platform
43 49 platform
43 50 platform
43 51 platform
43 52 platform
43 57 platform
44 20 platform
44 21 coin
44 22 coin
44 28 platform
44 29 coin
44 34 platform
44 35 coin
44 40 platform
44 57 platform
45 20 platform
45 21 coin
45 22 coin
45 28 platform
45 34 platform
45 40 platform
45 57 platform
46 20 platform
46 25 platform
46 31 platform
46 37 platform
46 40 platform
46 57 platform
47 20 platform
47 25 platform
47 26 coin
47 31 platform
47 32 coin
47 37 platform
47 40 platform
47 57 platform
48 20 platform
48 23 platform
48 24 platform
48 25 platform
48 26 platform
48 27 platform
48 28 platform
48 29 platform
48 30 platform
48 31 platform
48 32 platform
48 33 platform
48 34 platform
48 35 platform
48 36 platform
48 37 platform
48 38 coin
48 40 platform
48 57 platform
49 20 platform
49 29 platform
49 33 jumpBoostItem
49 34 platform
49 35 spike
49 57 platform
50 20 platform
50 29 platform
50 34 platform
50 35 spike
50 50 platform
50 55 louSpawn
50 57 platform
51 20 platform
51 34 platform
51 35 spike
51 50 platform
51 57 platform
52 20 platform
52 34 platform
52 35 spike
52 48 platform
52 49 platform
52 50 platform
52 57 platform
53 20 platform
53 34 platform
53 35 spike
53 48 platform
53 49 platform
53 50 platform
53 57 platform
54 20 platform
54 25 platform
54 34 platform
54 35 spike
54 48 platform
54 49 platform
54 50 platform
54 55 andySpawn
54 57 platform
55 20 platform
55 25 platform
55 33 movingSpike
55 34 platform
55 35 spike
55 48 platform
55 49 platform
55 50 platform
55 57 platform
56 20 platform
56 21 platform
56 22 platform
56 23 platform
56 24 platform
56 25 platform
56 26 platform
56 27 platform
56 28 platform
56 29 platform
56 30 platform
56 31 platform
56 32 gate
56 34 platform
56 35 spike
56 57 platform
57 25 platform
57 33 movingSpike
57 34 platform
57 35 spike
57 57 platform
58 25 platform
58 34 platform
58 35 spike
58 57 platform
59 25 platform
59 34 platform
59 35 spike
59 54 brickSpawn
59 57 platform
60 25 platform
60 34 platform
60 35 spike
60 57 platform
61 25 platform
61 34 platform
61 35 spike
61 57 platform
62 25 platform
62 28 platform
62 34 platform
62 35 spike
62 57 platform
63 25 platform
63 26 gate
63 28 platform
63 29 platform
63 30 platform
63 31 platform
63 32 platform
63 33 platform
63 34 platform
63 35 spike
63 57 platform
64 25 platform
64 28 platform
64 33 movingSpike
64 34 platform
64 35 spike
64 53 steveSpawn
64 57 platform
65 25 platform
65 34 platform
65 35 spike
65 46 AndyDoor
65 47 AndyDoor
65 48 platform
65 49 platform
65 50 platform
65 57 platform
66 25 platform
66 34 platform
66 35 spike
66 46 AndyDoor
66 47 AndyDoor
66 48 platform
66 49 platform
66 50 platform
66 57 platform
67 25 platform
67 34 platform
67 35 spike
67 40 key
67 41 key
67 42 platform
67 46 AndyDoor
67 47 AndyDoor
67 48 platform
67 49 platform
67 50 platform
67 57 platform
68 25 platform
68 34 platform
68 35 spike
68 40 key
68 41 key
68 42 platform
68 46 AndyDoor
68 47 AndyDoor
68 48 platform
68 49 platform
68 50 platform
68 57 platform
69 25 platform
69 34 platform
69 35 spike
69 49 platform
69 50 platform
69 57 platform
70 25 platform
70 34 platform
70 35 spike
70 57 platform
71 25 platform
71 34 platform
71 35 spike
71 57 platform
72 25 platform
72 34 platform
72 35 spike
72 57 platform
73 25 platform
73 26 platform
73 27 platform
73 28 platform
73 29 platform
73 30 platform
73 31 platform
73 32 gate
73 34 platform
73 35 spike
73 57 platform
74 25 platform
74 33 movingSpike
74 34 platform
74 35 spike
74 57 platform
75 25 platform
75 34 platform
75 35 spike
75 57 platform
76 25 platform
76 34 platform
76 35 spike
76 57 platform
77 25 platform
77 34 platform
77 35 spike
77 57 platform
78 25 platform
78 34 platform
78 35 spike
78 57 platform
79 25 platform
79 28 platform
79 34 platform
79 35 spike
79 57 platform
80 25 platform
80 26 gate
80 28 platform
80 29 platform
80 30 platform
80 31 platform
80 32 platform
80 33 platform
80 34 platform
80 35 spike
80 45 BrickDoor
80 46 BrickDoor
80 47 BrickDoor
80 48 platform
80 49 platform
80 50 platform
80 57 platform
81 25 platform
81 28 platform
81 34 platform
81 35 spike
81 45 BrickDoor
81 46 BrickDoor
81 47 BrickDoor
81 48 platform
81 49 platform
81 50 platform
81 57 platform
82 25 platform
82 34 platform
82 35 spike
82 45 BrickDoor
82 46 BrickDoor
82 47 BrickDoor
82 48 platform
82 49 platform
82 50 platform
82 57 platform
83 25 platform
83 34 platform
83 35 spike
83 57 platform
84 25 platform
84 32 LouDoor
84 33 LouDoor
84 34 platform
84 35 spike
84 57 platform
85 25 platform
85 32 LouDoor
85 33 LouDoor
85 34 platform
85 35 spike
85 57 platform
86 25 platform
86 26 platform
86 27 platform
86 28 platform
86 29 platform
86 30 platform
86 31 platform
86 32 platform
86 33 platform
86 34 platform
86 35 platform
86 36 platform
86 37 platform
86 38 platform
86 39 platform
86 40 platform
86 41 platform
86 42 platform
86 43 platform
86 44 platform
86 45 platform
86 46 platform
86 47 platform
86 48 platform
86 49 platform
86 50 platform
86 51 platform
86 52 platform
86 53 platform
86 54 platform
86 55 platform
86 56 platform
86 57 platform
