30 20 LouDoor
30 21 LouDoor
30 22 LouDoor
30 23 LouDoor
30 24 platform
30 25 platform
30 26 platform
30 27 platform
30 28 platform
30 29 platform
30 30 platform
30 31 platform
30 32 platform
30 33 platform
30 34 platform
30 35 platform
30 36 platform
30 37 platform
30 38 platform
30 39 platform
30 40 platform
30 41 platform
30 42 platform
30 43 platform
30 44 platform
30 45 platform
30 46 platform
30 47 platform
30 48 platform
30 49 platform
30 50 platform
30 51 platform
30 52 platform
30 53 platform
30 54 platform
30 55 platform
30 56 platform
30 57 platform
30 58 platform
30 59 platform
31 20 LouDoor
31 21 LouDoor
31 22 LouDoor
31 23 LouDoor
31 24 platform
31 27 
31 59 platform
32 20 LouDoor
32 21 LouDoor
32 22 LouDoor
32 23 LouDoor
32 24 platform
32 27 
32 57 louSpawn
32 59 platform
33 20 LouDoor
33 21 LouDoor
33 22 LouDoor
33 23 LouDoor
33 24 platform
33 27 
33 39 coin
33 40 platform
33 59 platform
34 20 LouDoor
34 21 LouDoor
34 22 LouDoor
34 23 LouDoor
34 24 platform
34 27 
34 34 cloud
34 59 platform
35 20 LouDoor
35 21 LouDoor
35 22 LouDoor
35 23 LouDoor
35 24 
35 27 
35 33 cloud
35 34 cloud
35 35 cloud
35 51 coin
35 52 platform
35 57 andySpawn
35 59 platform
36 20 LouDoor
36 21 LouDoor
36 22 LouDoor
36 23 LouDoor
36 24 
36 25 coin
36 26 platform
36 27 
36 33 cloud
36 34 cloud
36 35 cloud
36 59 platform
37 20 LouDoor
37 21 LouDoor
37 22 LouDoor
37 23 LouDoor
37 24 
37 27 
37 34 cloud
37 44 jumpBoostItem
37 45 platform
37 59 platform
38 20 LouDoor
38 21 LouDoor
38 22 LouDoor
38 23 LouDoor
38 24 
38 27 
38 59 platform
39 20 LouDoor
39 21 LouDoor
39 22 LouDoor
39 23 LouDoor
39 24 platform
39 27 
39 30 coin
39 31 platform
39 37 healthItem
39 38 platform
39 59 platform
40 20 LouDoor
40 21 LouDoor
40 22 LouDoor
40 23 LouDoor
40 24 platform
40 27 
40 59 platform
41 20 LouDoor
41 21 LouDoor
41 22 LouDoor
41 23 LouDoor
41 24 platform
41 27 
41 56 coin
41 57 platform
41 58 platform
41 59 platform
42 20 LouDoor
42 21 LouDoor
42 22 LouDoor
42 23 LouDoor
42 24 platform
42 25 
42 27 
42 58 
42 59 platform
43 20 LouDoor
43 21 LouDoor
43 22 LouDoor
43 23 LouDoor
43 24 platform
43 25 
43 27 
43 28 spike
43 29 platform
43 48 coin
43 49 platform
43 59 platform
44 20 AndyDoor
44 21 AndyDoor
44 22 AndyDoor
44 23 AndyDoor
44 24 platform
44 25 
44 27 
44 56 brickSpawn
44 58 
44 59 platform
45 20 AndyDoor
45 21 AndyDoor
45 22 AndyDoor
45 23 AndyDoor
45 24 platform
45 27 
45 59 platform
46 20 AndyDoor
46 21 AndyDoor
46 22 AndyDoor
46 23 AndyDoor
46 24 platform
46 27 
46 58 
46 59 platform
47 20 AndyDoor
47 21 AndyDoor
47 22 AndyDoor
47 23 AndyDoor
47 24 platform
47 27 
47 32 jumpBoostItem
47 33 platform
47 42 spike
47 43 platform
47 52 healthItem
47 53 platform
47 59 platform
48 20 AndyDoor
48 21 AndyDoor
48 22 AndyDoor
48 23 AndyDoor
48 24 
48 27 
48 59 platform
49 20 AndyDoor
49 21 AndyDoor
49 22 AndyDoor
49 23 AndyDoor
49 24 
49 27 
49 55 steveSpawn
49 58 
49 59 platform
50 20 AndyDoor
50 21 AndyDoor
50 22 AndyDoor
50 23 AndyDoor
50 24 
50 25 healthItem
50 26 platform
50 27 
50 58 
50 59 platform
51 20 AndyDoor
51 21 AndyDoor
51 22 AndyDoor
51 23 AndyDoor
51 24 
51 27 
51 30 cloud
51 58 platform
51 59 platform
52 20 AndyDoor
52 21 AndyDoor
52 22 AndyDoor
52 23 AndyDoor
52 24 
52 27 
52 29 cloud
52 30 cloud
52 31 cloud
52 59 platform
53 20 AndyDoor
53 21 AndyDoor
53 22 AndyDoor
53 23 AndyDoor
53 24 
53 27 
53 29 cloud
53 30 cloud
53 31 cloud
53 37 spike
53 38 platform
53 58 platform
53 59 platform
54 20 AndyDoor
54 21 AndyDoor
54 22 AndyDoor
54 23 AndyDoor
54 24 platform
54 27 
54 30 cloud
54 57 platform
54 58 platform
54 59 platform
55 20 AndyDoor
55 21 AndyDoor
55 22 AndyDoor
55 23 AndyDoor
55 24 platform
55 27 
55 56 platform
55 57 platform
55 58 platform
55 59 platform
56 20 AndyDoor
56 21 AndyDoor
56 22 AndyDoor
56 23 AndyDoor
56 24 platform
56 27 
56 45 coin
56 46 platform
56 56 water
56 57 water
56 58 water
56 59 platform
57 20 BrickDoor
57 21 BrickDoor
57 22 BrickDoor
57 23 BrickDoor
57 24 platform
57 27 
57 32 shieldItem
57 33 platform
57 56 water
57 57 water
57 58 water
57 59 platform
58 20 BrickDoor
58 21 BrickDoor
58 22 BrickDoor
58 23 BrickDoor
58 24 platform
58 27 
58 28 coin
58 29 platform
58 53 shieldItem
58 54 platform
58 56 water
58 57 water
58 58 water
58 59 platform
59 20 BrickDoor
59 21 BrickDoor
59 22 BrickDoor
59 23 BrickDoor
59 24 platform
59 27 
59 56 platform
59 57 platform
59 58 platform
59 59 platform
60 20 BrickDoor
60 21 BrickDoor
60 22 BrickDoor
60 23 BrickDoor
60 24 platform
60 27 
60 57 platform
60 58 platform
60 59 platform
61 20 BrickDoor
61 21 BrickDoor
61 22 BrickDoor
61 23 BrickDoor
61 24 platform
61 27 
61 57 
61 58 platform
61 59 platform
62 20 BrickDoor
62 21 BrickDoor
62 22 BrickDoor
62 23 BrickDoor
62 24 platform
62 27 
62 58 movingSpike
62 59 platform
63 20 BrickDoor
63 21 BrickDoor
63 22 BrickDoor
63 23 BrickDoor
63 24 platform
63 27 
63 59 platform
64 20 BrickDoor
64 21 BrickDoor
64 22 BrickDoor
64 23 BrickDoor
64 24 platform
64 27 
64 51 spike
64 52 platform
64 59 platform
65 20 BrickDoor
65 21 BrickDoor
65 22 BrickDoor
65 23 BrickDoor
65 24 platform
65 27 
65 42 coin
65 43 platform
65 59 platform
66 20 BrickDoor
66 21 BrickDoor
66 22 BrickDoor
66 23 BrickDoor
66 24 
66 27 
66 31 jumpBoostItem
66 32 platform
66 59 platform
67 20 BrickDoor
67 21 BrickDoor
67 22 BrickDoor
67 23 BrickDoor
67 24 
67 27 
67 37 healthItem
67 38 platform
67 56 coin
67 57 platform
67 59 platform
68 20 BrickDoor
68 21 BrickDoor
68 22 BrickDoor
68 23 BrickDoor
68 24 
68 26 coin
68 27 platform
68 59 platform
69 20 BrickDoor
69 21 BrickDoor
69 22 BrickDoor
69 23 BrickDoor
69 24 
69 27 
69 34 cloud
69 35 cloud
69 59 platform
70 20 BrickDoor
70 21 BrickDoor
70 22 BrickDoor
70 23 BrickDoor
70 24 
70 27 
70 33 cloud
70 34 cloud
70 35 cloud
70 36 cloud
70 59 platform
71 20 BrickDoor
71 21 BrickDoor
71 22 BrickDoor
71 23 BrickDoor
71 24 
71 27 
71 33 cloud
71 34 cloud
71 35 cloud
71 36 cloud
71 44 spike
71 45 platform
71 59 platform
72 20 SteveDoor
72 21 SteveDoor
72 22 SteveDoor
72 23 SteveDoor
72 24 platform
72 27 
72 34 cloud
72 35 cloud
72 54 healthItem
72 55 platform
72 58 platform
72 59 platform
73 20 SteveDoor
73 21 SteveDoor
73 22 SteveDoor
73 23 SteveDoor
73 24 platform
73 27 
73 30 spike
73 31 platform
73 59 platform
74 20 SteveDoor
74 21 SteveDoor
74 22 SteveDoor
74 23 SteveDoor
74 24 platform
74 27 
74 59 platform
75 20 SteveDoor
75 21 SteveDoor
75 22 SteveDoor
75 23 SteveDoor
75 24 platform
75 27 
75 59 platform
76 20 SteveDoor
76 21 SteveDoor
76 22 SteveDoor
76 23 SteveDoor
76 24 platform
76 27 
76 50 jumpBoostItem
76 51 platform
76 59 platform
77 20 SteveDoor
77 21 SteveDoor
77 22 SteveDoor
77 23 SteveDoor
77 24 platform
77 27 
77 59 platform
78 20 SteveDoor
78 21 SteveDoor
78 22 SteveDoor
78 23 SteveDoor
78 24 platform
78 27 
78 35 coin
78 36 platform
78 59 platform
79 20 SteveDoor
79 21 SteveDoor
79 22 SteveDoor
79 23 SteveDoor
79 24 
79 27 
79 59 platform
80 20 SteveDoor
80 21 SteveDoor
80 22 SteveDoor
80 23 SteveDoor
80 24 
80 27 
80 56 coin
80 57 platform
80 59 platform
81 20 SteveDoor
81 21 SteveDoor
81 22 SteveDoor
81 23 SteveDoor
81 24 
81 27 coin
81 28 platform
81 42 coin
81 43 platform
81 58 movingSpike
81 59 platform
82 20 SteveDoor
82 21 SteveDoor
82 22 SteveDoor
82 23 SteveDoor
82 24 
82 27 
82 58 platform
82 59 platform
83 20 SteveDoor
83 21 SteveDoor
83 22 SteveDoor
83 23 SteveDoor
83 24 
83 27 
83 28 cloud
83 58 platform
83 59 platform
84 20 SteveDoor
84 21 SteveDoor
84 22 SteveDoor
84 23 SteveDoor
84 24 
84 27 cloud
84 28 cloud
84 29 cloud
84 53 spike
84 54 platform
84 58 platform
84 59 platform
85 20 SteveDoor
85 21 SteveDoor
85 22 SteveDoor
85 23 SteveDoor
85 24 platform
85 27 cloud
85 28 cloud
85 29 cloud
85 49 coin
85 50 platform
85 58 platform
85 59 platform
86 20 SteveDoor
86 21 SteveDoor
86 22 SteveDoor
86 23 SteveDoor
86 24 platform
86 27 cloud
86 28 cloud
86 29 cloud
86 32 shieldItem
86 33 platform
86 58 platform
86 59 platform
87 20 SteveDoor
87 21 SteveDoor
87 22 SteveDoor
87 23 SteveDoor
87 24 platform
87 27 
87 28 cloud
87 58 platform
87 59 platform
88 20 SteveDoor
88 21 SteveDoor
88 22 SteveDoor
88 23 SteveDoor
88 24 platform
88 27 
88 58 platform
88 59 platform
89 20 SteveDoor
89 21 SteveDoor
89 22 SteveDoor
89 23 SteveDoor
89 24 platform
89 25 platform
89 26 platform
89 27 platform
89 28 platform
89 29 platform
89 30 platform
89 31 platform
89 32 platform
89 33 platform
89 34 platform
89 35 platform
89 36 platform
89 37 platform
89 38 platform
89 39 platform
89 40 platform
89 41 platform
89 42 platform
89 43 platform
89 44 platform
89 45 platform
89 46 platform
89 47 platform
89 48 platform
89 49 platform
89 50 platform
89 51 platform
89 52 platform
89 53 platform
89 54 platform
89 55 platform
89 56 platform
89 57 platform
89 58 platform
89 59 platform
