30 32 platform
30 33 platform
30 34 platform
30 35 platform
30 36 platform
30 37 platform
30 38 platform
30 39 platform
30 40 platform
30 41 platform
30 42 platform
30 43 platform
30 44 platform
30 45 platform
30 46 platform
30 47 platform
30 48 platform
30 49 platform
31 39 brickSpawn
31 42 platform
31 47 louSpawn
31 49 platform
32 42 platform
32 49 platform
33 42 platform
33 49 platform
34 30 cloud
34 38 steveSpawn
34 40 
34 42 platform
34 47 andySpawn
34 48 coin
34 49 platform
35 29 cloud
35 30 cloud
35 31 cloud
35 38 
35 39 
35 40 
35 41 
35 48 coin
35 49 platform
36 29 cloud
36 30 cloud
36 31 cloud
36 38 
36 39 
36 40 
36 41 
36 48 coin
36 49 platform
37 22 healthItem
37 23 key
37 24 platform
37 29 cloud
37 30 cloud
37 31 cloud
37 39 
37 40 
37 41 
37 44 
37 47 coin
37 48 coin
37 49 platform
38 23 coin
38 24 platform
38 30 cloud
38 40 
38 46 coin
38 47 coin
38 48 platform
38 49 platform
39 23 coin
39 24 platform
39 40 
39 45 coin
39 46 coin
39 47 platform
39 48 platform
39 49 platform
40 23 coin
40 24 platform
40 45 coin
40 46 platform
40 47 platform
40 48 platform
40 49 platform
41 45 platform
41 46 platform
41 47 platform
41 48 platform
41 49 platform
42 48 movingSpike
42 49 platform
43 49 platform
44 49 platform
45 48 movingSpike
45 49 platform
46 40 movingSpike
46 41 platform
46 45 platform
46 46 platform
46 47 platform
46 48 platform
46 49 platform
47 40 coin
47 41 platform
47 45 coin
47 46 platform
47 47 platform
47 48 platform
47 49 platform
48 40 coin
48 41 platform
48 45 coin
48 46 coin
48 47 platform
48 48 platform
48 49 platform
49 27 movingSpike
49 28 platform
49 40 coin
49 41 platform
49 46 coin
49 47 coin
49 48 platform
49 49 platform
50 27 coin
50 28 platform
50 32 cloud
50 33 
50 34 
50 36 
50 47 coin
50 48 coin
50 49 platform
51 27 coin
51 28 platform
51 31 cloud
51 32 cloud
51 33 cloud
51 38 
51 48 coin
51 49 platform
52 27 coin
52 28 platform
52 31 cloud
52 32 cloud
52 33 cloud
52 39 
52 42 
52 43 
52 48 coin
52 49 platform
53 32 cloud
53 37 movingSpike
53 38 platform
53 40 
53 41 
53 42 
53 43 
53 48 coin
53 49 platform
54 37 coin
54 38 platform
54 41 
54 42 
54 43 
54 48 coin
54 49 platform
55 37 coin
55 38 platform
55 41 
55 42 
55 43 
55 49 platform
56 37 coin
56 38 platform
56 42 
56 49 platform
57 49 platform
58 49 platform
59 48 movingSpike
59 49 platform
60 30 movingSpike
60 31 platform
60 48 platform
60 49 platform
61 30 coin
61 31 platform
61 35 movingSpike
61 36 platform
61 48 platform
61 49 platform
62 30 coin
62 31 platform
62 35 coin
62 36 platform
62 39 
62 40 
62 48 platform
62 49 platform
63 30 coin
63 31 platform
63 35 coin
63 36 platform
63 39 
63 40 
63 41 
63 47 movingSpike
63 48 platform
63 49 platform
64 35 coin
64 36 platform
64 39 
64 40 
64 41 
64 48 movingSpike
64 49 platform
65 40 
65 49 platform
66 49 platform
67 49 platform
68 33 movingSpike
68 34 platform
68 49 platform
69 33 coin
69 34 platform
69 49 platform
70 29 cloud
70 33 coin
70 34 platform
70 49 platform
71 28 cloud
71 29 cloud
71 30 cloud
71 33 coin
71 34 platform
71 49 platform
72 28 cloud
72 29 cloud
72 30 cloud
72 33 coin
72 34 platform
72 49 platform
73 28 cloud
73 29 cloud
73 30 cloud
73 33 coin
73 34 platform
73 49 platform
74 28 cloud
74 29 cloud
74 30 cloud
74 41 
74 42 
74 43 
74 49 platform
75 29 cloud
75 41 
75 42 
75 43 
75 49 platform
76 41 
76 42 
76 43 
76 49 platform
77 42 
77 48 healthItem
77 49 platform
78 42 
78 43 platform
78 44 platform
78 45 platform
78 46 platform
78 47 gate
78 49 platform
79 43 platform
79 49 platform
80 39 SteveDoor
80 40 SteveDoor
80 41 SteveDoor
80 42 SteveDoor
80 43 platform
80 49 platform
81 43 platform
81 47 AndyDoor
81 48 AndyDoor
81 49 platform
82 38 
82 39 
82 43 platform
82 47 AndyDoor
82 48 AndyDoor
82 49 platform
83 27 cloud
83 37 
83 38 
83 39 
83 43 platform
83 47 AndyDoor
83 48 AndyDoor
83 49 platform
84 26 cloud
84 27 cloud
84 28 cloud
84 37 
84 38 
84 39 
84 43 platform
84 47 AndyDoor
84 48 AndyDoor
84 49 platform
85 26 cloud
85 27 cloud
85 28 cloud
85 37 
85 38 
85 39 
85 40 BrickDoor
85 41 BrickDoor
85 42 BrickDoor
85 43 platform
85 49 platform
86 27 cloud
86 37 
86 38 
86 39 
86 40 BrickDoor
86 41 BrickDoor
86 42 BrickDoor
86 43 platform
86 49 platform
87 38 
87 40 BrickDoor
87 41 BrickDoor
87 42 BrickDoor
87 43 platform
87 47 LouDoor
87 48 LouDoor
87 49 platform
88 42 healthItem
88 43 platform
88 47 LouDoor
88 48 LouDoor
88 49 platform
89 34 platform
89 35 platform
89 36 platform
89 37 platform
89 38 platform
89 39 platform
89 40 platform
89 41 platform
89 42 platform
89 43 platform
89 44 platform
89 45 platform
89 46 platform
89 47 platform
89 48 platform
89 49 platform
