30 20 platform
30 21 platform
30 22 platform
30 23 platform
30 24 platform
30 25 platform
30 26 platform
30 27 platform
30 28 platform
30 29 platform
30 30 platform
30 31 platform
30 32 platform
30 33 platform
30 34 platform
30 35 platform
30 36 platform
30 37 platform
30 38 platform
30 39 platform
30 40 platform
30 41 platform
30 42 platform
30 43 platform
30 44 platform
30 45 platform
30 46 platform
30 47 platform
30 48 platform
30 49 platform
30 50 platform
30 51 platform
30 52 platform
30 53 platform
30 54 platform
30 55 platform
30 56 platform
30 57 platform
30 58 platform
30 59 platform
31 20 platform
31 21 coin
31 22 coin
31 23 healthItem
31 24 healthItem
31 25 platform
31 51 platform
31 52 key
31 53 coin
31 54 platform
31 55 steveSpawn
31 59 platform
32 20 platform
32 21 coin
32 22 coin
32 23 coin
32 24 coin
32 25 platform
32 34 platform
32 51 platform
32 52 coin
32 53 coin
32 54 platform
32 59 platform
33 20 platform
33 21 coin
33 22 coin
33 23 coin
33 24 coin
33 25 platform
33 34 platform
33 51 platform
33 52 coin
33 53 coin
33 54 platform
33 56 brickSpawn
33 59 platform
34 20 platform
34 21 coin
34 22 coin
34 23 coin
34 24 coin
34 25 platform
34 34 platform
34 51 platform
34 52 coin
34 53 coin
34 54 platform
34 59 platform
35 20 platform
35 34 platform
35 51 platform
35 52 coin
35 53 coin
35 54 platform
35 59 platform
36 20 platform
36 34 platform
36 46 platform
36 51 platform
36 52 coin
36 53 coin
36 54 platform
36 57 louSpawn
36 59 platform
37 20 platform
37 33 movingSpike
37 34 platform
37 46 platform
37 51 platform
37 52 coin
37 53 coin
37 54 platform
37 59 platform
38 20 platform
38 46 platform
38 51 platform
38 52 coin
38 53 coin
38 54 platform
38 59 platform
39 20 platform
39 46 platform
39 51 platform
39 52 coin
39 53 coin
39 54 platform
39 59 platform
40 20 platform
40 45 movingSpike
40 46 platform
40 51 platform
40 52 coin
40 53 coin
40 54 platform
40 59 platform
41 20 platform
41 51 platform
41 52 coin
41 53 coin
41 54 platform
41 59 platform
42 20 platform
42 27 
42 28 
42 29 platform
42 51 platform
42 52 coin
42 53 coin
42 54 platform
42 59 platform
43 20 platform
43 29 platform
43 34 cloud
43 57 andySpawn
43 59 platform
44 20 platform
44 29 platform
44 34 cloud
44 38 platform
44 59 platform
45 20 platform
45 29 platform
45 34 cloud
45 38 platform
45 59 platform
46 20 platform
46 29 platform
46 34 cloud
46 38 platform
46 59 platform
47 20 platform
47 28 movingSpike
47 29 platform
47 38 platform
47 59 platform
48 20 platform
48 37 movingSpike
48 38 platform
48 59 platform
49 20 platform
49 24 cloud
49 59 platform
50 20 platform
50 24 cloud
50 59 platform
51 20 platform
51 24 cloud
51 59 platform
52 20 platform
52 24 cloud
52 54 platform
52 59 platform
53 20 platform
53 24 cloud
53 31 
53 32 platform
53 54 platform
53 59 platform
54 20 platform
54 32 platform
54 54 platform
54 59 platform
55 20 platform
55 32 platform
55 44 platform
55 54 platform
55 59 platform
56 20 platform
56 32 platform
56 44 platform
56 53 movingSpike
56 54 platform
56 59 platform
57 20 platform
57 32 platform
57 44 platform
57 59 platform
58 20 platform
58 31 movingSpike
58 32 platform
58 43 movingSpike
58 44 platform
58 59 platform
59 20 platform
59 59 platform
60 20 platform
60 58 
60 59 platform
61 20 platform
61 59 platform
62 20 platform
62 26 platform
62 27 platform
62 28 platform
62 29 platform
62 55 shieldItem
62 56 platform
62 59 platform
63 20 platform
63 26 platform
63 27 shieldItem
63 28 jumpBoostItem
63 29 platform
63 56 platform
63 59 platform
64 20 platform
64 26 platform
64 29 platform
64 56 platform
64 59 platform
65 20 platform
65 26 platform
65 27 gate
65 29 platform
65 36 
65 37 platform
65 55 movingSpike
65 56 platform
65 59 platform
66 20 platform
66 29 platform
66 37 platform
66 59 platform
67 20 platform
67 37 platform
67 59 platform
68 20 platform
68 33 cloud
68 37 platform
68 59 platform
69 20 platform
69 33 cloud
69 36 movingSpike
69 37 platform
69 59 platform
70 20 platform
70 33 cloud
70 49 movingSpike
70 50 platform
70 59 platform
71 20 platform
71 23 cloud
71 33 cloud
71 48 AndyDoor
71 49 AndyDoor
71 50 platform
71 59 platform
72 20 platform
72 23 cloud
72 33 cloud
72 48 AndyDoor
72 49 AndyDoor
72 50 platform
72 59 platform
73 20 platform
73 23 cloud
73 43 
73 44 platform
73 48 AndyDoor
73 49 AndyDoor
73 50 platform
73 59 platform
74 20 platform
74 23 cloud
74 44 platform
74 48 AndyDoor
74 49 AndyDoor
74 50 platform
74 59 platform
75 20 platform
75 23 cloud
75 31 platform
75 43 spike
75 44 platform
75 59 platform
76 20 platform
76 31 platform
76 43 platform
76 44 platform
76 59 platform
77 20 platform
77 31 platform
77 43 platform
77 59 platform
78 20 platform
78 31 platform
78 42 spike
78 43 platform
78 59 platform
79 20 platform
79 24 coin
79 25 coin
79 26 coin
79 27 SteveDoor
79 28 SteveDoor
79 29 SteveDoor
79 30 SteveDoor
79 31 platform
79 59 platform
80 20 platform
80 23 coin
80 24 coin
80 59 platform
81 20 platform
81 23 coin
81 59 platform
82 20 platform
82 23 coin
82 59 platform
83 20 platform
83 23 coin
83 59 platform
84 20 platform
84 21 platform
84 23 coin
84 24 platform
84 49 platform
84 59 platform
85 20 platform
85 21 platform
85 23 coin
85 24 platform
85 49 platform
85 59 platform
86 20 platform
86 21 platform
86 23 coin
86 24 platform
86 46 BrickDoor
86 47 BrickDoor
86 48 BrickDoor
86 49 platform
86 59 platform
87 20 platform
87 21 platform
87 22 LouDoor
87 23 LouDoor
87 24 platform
87 46 BrickDoor
87 47 BrickDoor
87 48 BrickDoor
87 49 platform
87 59 platform
88 20 platform
88 21 platform
88 22 LouDoor
88 23 LouDoor
88 24 platform
88 46 BrickDoor
88 47 BrickDoor
88 48 BrickDoor
88 49 platform
88 59 platform
89 20 platform
89 21 platform
89 22 platform
89 23 platform
89 24 platform
89 25 platform
89 26 platform
89 27 platform
89 28 platform
89 29 platform
89 30 platform
89 31 platform
89 32 platform
89 33 platform
89 34 platform
89 35 platform
89 36 platform
89 37 platform
89 38 platform
89 39 platform
89 40 platform
89 41 platform
89 42 platform
89 43 platform
89 44 platform
89 45 platform
89 46 platform
89 47 platform
89 48 platform
89 49 platform
89 50 platform
89 51 platform
89 52 platform
89 53 platform
89 54 platform
89 55 platform
89 56 platform
89 57 platform
89 58 platform
89 59 platform
