41 41 platform
42 37 platform
42 38 platform
42 39 platform
42 40 platform
42 41 platform
42 42 platform
43 39 louSpawn
43 41 platform
44 41 platform
45 41 platform
45 42 platform
46 39 LouDoor
46 41 platform
47 41 platform
48 37 platform
48 38 platform
48 39 platform
48 40 platform
48 41 platform
48 42 platform
49 41 platform
50 41 platform
51 41 platform
52 37 platform
52 38 platform
52 39 platform
52 40 platform
52 41 platform
52 42 platform
53 41 platform
