37 37 platform
37 38 platform
37 39 platform
37 40 platform
37 41 platform
37 42 platform
37 43 platform
37 44 platform
37 45 platform
38 37 coin
38 38 coin
38 39 coin
38 40 coin
38 41 coin
38 42 coin
38 43 louSpawn
38 45 platform
39 37 coin
39 38 coin
39 39 coin
39 40 coin
39 41 coin
39 42 coin
39 45 platform
40 37 coin
40 38 coin
40 39 coin
40 40 coin
40 41 coin
40 42 coin
40 45 platform
41 37 coin
41 38 coin
41 39 coin
41 40 coin
41 41 coin
41 42 coin
41 45 platform
42 37 coin
42 38 coin
42 39 coin
42 40 coin
42 41 coin
42 42 coin
42 45 platform
43 37 coin
43 38 coin
43 39 coin
43 40 coin
43 41 coin
43 42 coin
43 45 platform
44 37 coin
44 38 coin
44 39 coin
44 40 coin
44 41 coin
44 42 coin
44 45 platform
45 37 coin
45 38 coin
45 39 coin
45 40 coin
45 41 coin
45 42 coin
45 45 platform
46 37 coin
46 38 coin
46 39 coin
46 40 coin
46 41 coin
46 42 coin
46 45 platform
47 37 coin
47 38 coin
47 39 coin
47 40 coin
47 41 coin
47 42 coin
47 45 platform
48 37 coin
48 38 coin
48 39 coin
48 40 coin
48 41 coin
48 42 coin
48 45 platform
49 37 coin
49 38 coin
49 39 coin
49 40 coin
49 41 coin
49 42 coin
49 43 LouDoor
49 44 LouDoor
49 45 platform
50 37 coin
50 38 coin
50 39 coin
50 40 coin
50 41 coin
50 42 coin
50 43 LouDoor
50 44 LouDoor
50 45 platform
51 37 platform
51 38 platform
51 39 platform
51 40 platform
51 41 platform
51 42 platform
51 43 platform
51 44 platform
51 45 platform
