30 20 platform
30 21 platform
30 22 platform
30 23 platform
30 24 platform
30 25 platform
30 26 platform
30 27 platform
30 28 platform
30 29 platform
30 30 platform
30 31 platform
30 32 platform
30 33 platform
30 34 platform
30 35 platform
30 36 platform
30 37 platform
30 38 platform
30 39 platform
30 40 platform
30 41 platform
30 42 platform
30 43 platform
30 44 platform
30 45 platform
30 46 platform
30 47 platform
30 48 platform
30 49 platform
30 50 platform
30 51 platform
30 52 platform
30 53 platform
30 54 platform
30 55 platform
30 56 platform
30 57 platform
30 58 platform
30 59 platform
31 20 platform
31 21 platform
31 22 platform
31 23 platform
31 24 platform
31 25 platform
31 26 platform
31 27 platform
31 28 platform
31 29 platform
31 30 platform
31 31 platform
31 32 platform
31 33 platform
31 34 platform
31 35 platform
31 36 platform
31 37 platform
31 38 platform
31 39 platform
31 40 platform
31 41 platform
31 42 platform
31 43 platform
31 44 platform
31 45 platform
31 46 platform
31 47 platform
31 48 platform
31 49 platform
31 50 platform
31 51 platform
31 52 platform
31 53 platform
31 54 platform
31 55 platform
31 56 platform
31 57 platform
31 58 platform
31 59 platform
32 20 platform
32 21 platform
32 22 platform
32 23 platform
32 24 platform
32 25 platform
32 26 platform
32 27 platform
32 28 platform
32 29 platform
32 30 platform
32 31 platform
32 32 platform
32 33 platform
32 34 platform
32 35 platform
32 36 platform
32 37 platform
32 38 platform
32 39 platform
32 40 platform
32 41 platform
32 42 platform
32 43 platform
32 44 platform
32 45 platform
32 46 platform
32 47 platform
32 48 platform
32 49 platform
32 50 platform
32 51 platform
32 52 platform
32 53 platform
32 54 platform
32 55 platform
32 56 platform
32 57 platform
32 58 platform
32 59 platform
33 20 platform
33 21 platform
33 22 platform
33 23 platform
33 24 platform
33 25 platform
33 26 platform
33 27 platform
33 28 platform
33 29 platform
33 30 platform
33 31 platform
33 32 platform
33 33 platform
33 34 platform
33 35 platform
33 36 platform
33 37 platform
33 38 platform
33 39 platform
33 40 platform
33 41 platform
33 42 platform
33 43 platform
33 44 platform
33 45 platform
33 46 platform
33 47 platform
33 48 platform
33 49 platform
33 50 platform
33 51 platform
33 52 platform
33 53 platform
33 54 platform
33 55 platform
33 56 platform
33 57 platform
33 58 platform
33 59 platform
34 20 platform
34 21 platform
34 22 platform
34 23 platform
34 24 platform
34 25 platform
34 26 platform
34 27 platform
34 28 platform
34 29 platform
34 30 platform
34 31 platform
34 32 platform
34 33 platform
34 34 platform
34 35 platform
34 36 platform
34 37 platform
34 38 platform
34 39 platform
34 40 platform
34 41 platform
34 42 platform
34 43 platform
34 44 platform
34 45 platform
34 46 platform
34 47 platform
34 48 platform
34 49 platform
34 50 platform
34 51 platform
34 52 platform
34 53 platform
34 54 platform
34 55 platform
34 56 platform
34 57 platform
34 58 platform
34 59 platform
35 20 platform
35 21 platform
35 22 platform
35 23 platform
35 24 platform
35 25 platform
35 26 platform
35 27 platform
35 28 platform
35 29 platform
35 30 platform
35 31 platform
35 32 platform
35 33 platform
35 34 platform
35 35 platform
35 36 platform
35 37 platform
35 38 platform
35 39 platform
35 40 platform
35 41 platform
35 42 platform
35 43 platform
35 44 platform
35 45 platform
35 46 platform
35 47 platform
35 48 platform
35 49 platform
35 50 platform
35 51 platform
35 52 platform
35 53 platform
35 54 platform
35 55 platform
35 56 platform
35 57 platform
35 58 platform
35 59 platform
36 20 platform
36 21 platform
36 22 platform
36 23 platform
36 24 platform
36 25 platform
36 26 platform
36 27 platform
36 28 platform
36 29 platform
36 30 platform
36 31 platform
36 32 platform
36 33 platform
36 34 platform
36 35 
36 36 
36 37 
36 38 
36 39 
36 40 louSpawn
36 41 
36 42 platform
36 43 platform
36 44 platform
36 45 platform
36 46 platform
36 47 platform
36 48 platform
36 49 platform
36 50 platform
36 51 platform
36 52 platform
36 53 platform
36 54 platform
36 55 platform
36 56 platform
36 57 platform
36 58 platform
36 59 platform
37 20 platform
37 21 platform
37 22 platform
37 23 platform
37 24 platform
37 25 platform
37 26 platform
37 27 platform
37 28 platform
37 29 platform
37 30 platform
37 31 platform
37 32 platform
37 33 platform
37 34 platform
37 35 
37 36 
37 37 
37 38 
37 39 
37 40 
37 41 
37 42 platform
37 43 platform
37 44 platform
37 45 platform
37 46 platform
37 47 platform
37 48 platform
37 49 platform
37 50 platform
37 51 platform
37 52 platform
37 53 platform
37 54 platform
37 55 platform
37 56 platform
37 57 platform
37 58 platform
37 59 platform
38 20 platform
38 21 platform
38 22 platform
38 23 platform
38 24 platform
38 25 platform
38 26 platform
38 27 platform
38 28 platform
38 29 platform
38 30 platform
38 31 platform
38 32 platform
38 33 platform
38 34 platform
38 35 
38 36 
38 37 
38 38 
38 39 
38 40 
38 41 
38 42 platform
38 43 platform
38 44 platform
38 45 platform
38 46 platform
38 47 platform
38 48 platform
38 49 platform
38 50 platform
38 51 platform
38 52 platform
38 53 platform
38 54 platform
38 55 platform
38 56 platform
38 57 platform
38 58 platform
38 59 platform
39 20 platform
39 21 platform
39 22 platform
39 23 platform
39 24 platform
39 25 platform
39 26 platform
39 27 platform
39 28 platform
39 29 platform
39 30 platform
39 31 platform
39 32 platform
39 33 platform
39 34 platform
39 35 
39 36 
39 37 
39 38 steveSpawn
39 39 
39 40 
39 41 
39 42 platform
39 43 platform
39 44 platform
39 45 platform
39 46 platform
39 47 platform
39 48 platform
39 49 platform
39 50 platform
39 51 platform
39 52 platform
39 53 platform
39 54 platform
39 55 platform
39 56 platform
39 57 platform
39 58 platform
39 59 platform
40 20 platform
40 21 platform
40 22 platform
40 23 platform
40 24 platform
40 25 platform
40 26 platform
40 27 platform
40 28 platform
40 29 platform
40 30 platform
40 31 platform
40 32 platform
40 33 platform
40 34 platform
40 35 
40 36 
40 37 
40 38 
40 39 
40 40 
40 41 
40 42 platform
40 43 platform
40 44 platform
40 45 platform
40 46 platform
40 47 platform
40 48 platform
40 49 platform
40 50 platform
40 51 platform
40 52 platform
40 53 platform
40 54 platform
40 55 platform
40 56 platform
40 57 platform
40 58 platform
40 59 platform
41 20 platform
41 21 platform
41 22 platform
41 23 platform
41 24 platform
41 25 platform
41 26 platform
41 27 platform
41 28 platform
41 29 platform
41 30 platform
41 31 platform
41 32 platform
41 33 platform
41 34 platform
41 35 
41 36 
41 37 
41 38 
41 39 
41 40 andySpawn
41 41 
41 42 platform
41 43 platform
41 44 platform
41 45 platform
41 46 platform
41 47 platform
41 48 platform
41 49 platform
41 50 platform
41 51 platform
41 52 platform
41 53 platform
41 54 platform
41 55 platform
41 56 platform
41 57 platform
41 58 platform
41 59 platform
42 20 platform
42 21 platform
42 22 platform
42 23 platform
42 24 platform
42 25 platform
42 26 platform
42 27 platform
42 28 platform
42 29 platform
42 30 platform
42 31 platform
42 32 platform
42 33 platform
42 34 platform
42 35 
42 36 
42 37 
42 38 
42 39 
42 40 
42 41 
42 42 platform
42 43 platform
42 44 platform
42 45 platform
42 46 platform
42 47 platform
42 48 platform
42 49 platform
42 50 platform
42 51 platform
42 52 platform
42 53 platform
42 54 platform
42 55 platform
42 56 platform
42 57 platform
42 58 platform
42 59 platform
43 20 platform
43 21 platform
43 22 platform
43 23 platform
43 24 platform
43 25 platform
43 26 platform
43 27 platform
43 28 platform
43 29 platform
43 30 platform
43 31 platform
43 32 platform
43 33 platform
43 34 platform
43 35 
43 36 
43 37 
43 38 
43 39 
43 40 
43 41 
43 42 platform
43 43 platform
43 44 platform
43 45 platform
43 46 platform
43 47 platform
43 48 platform
43 49 platform
43 50 platform
43 51 platform
43 52 platform
43 53 platform
43 54 platform
43 55 platform
43 56 platform
43 57 platform
43 58 platform
43 59 platform
44 20 platform
44 21 platform
44 22 platform
44 23 platform
44 24 platform
44 25 platform
44 26 platform
44 27 platform
44 28 platform
44 29 platform
44 30 platform
44 31 platform
44 32 platform
44 33 platform
44 34 platform
44 35 
44 36 
44 37 
44 38 
44 39 
44 40 
44 41 
44 42 platform
44 43 platform
44 44 platform
44 45 platform
44 46 platform
44 47 platform
44 48 platform
44 49 platform
44 50 platform
44 51 platform
44 52 platform
44 53 platform
44 54 platform
44 55 platform
44 56 platform
44 57 platform
44 58 platform
44 59 platform
45 20 platform
45 21 platform
45 22 platform
45 23 platform
45 24 platform
45 25 platform
45 26 platform
45 27 platform
45 28 platform
45 29 platform
45 30 platform
45 31 platform
45 32 platform
45 33 platform
45 34 platform
45 35 
45 36 
45 37 
45 38 
45 39 
45 40 
45 41 
45 42 platform
45 43 platform
45 44 platform
45 45 platform
45 46 platform
45 47 platform
45 48 platform
45 49 platform
45 50 platform
45 51 platform
45 52 platform
45 53 platform
45 54 platform
45 55 platform
45 56 platform
45 57 platform
45 58 platform
45 59 platform
46 20 platform
46 21 platform
46 22 platform
46 23 platform
46 24 platform
46 25 platform
46 26 platform
46 27 platform
46 28 platform
46 29 platform
46 30 platform
46 31 platform
46 32 platform
46 33 platform
46 34 platform
46 35 
46 36 
46 37 
46 38 
46 39 brickSpawn
46 40 
46 41 
46 42 platform
46 43 platform
46 44 platform
46 45 platform
46 46 platform
46 47 platform
46 48 platform
46 49 platform
46 50 platform
46 51 platform
46 52 platform
46 53 platform
46 54 platform
46 55 platform
46 56 platform
46 57 platform
46 58 platform
46 59 platform
47 20 platform
47 21 platform
47 22 platform
47 23 platform
47 24 platform
47 25 platform
47 26 platform
47 27 platform
47 28 platform
47 29 platform
47 30 platform
47 31 platform
47 32 platform
47 33 platform
47 34 platform
47 35 
47 36 
47 37 
47 38 
47 39 
47 40 
47 41 
47 42 platform
47 43 platform
47 44 platform
47 45 platform
47 46 platform
47 47 platform
47 48 platform
47 49 platform
47 50 platform
47 51 platform
47 52 platform
47 53 platform
47 54 platform
47 55 platform
47 56 platform
47 57 platform
47 58 platform
47 59 platform
48 20 platform
48 21 platform
48 22 platform
48 23 platform
48 24 platform
48 25 platform
48 26 platform
48 27 platform
48 28 platform
48 29 platform
48 30 platform
48 31 platform
48 32 platform
48 33 platform
48 34 platform
48 35 
48 36 
48 37 
48 38 
48 39 
48 40 
48 41 
48 42 platform
48 43 platform
48 44 platform
48 45 platform
48 46 platform
48 47 platform
48 48 platform
48 49 platform
48 50 platform
48 51 platform
48 52 platform
48 53 platform
48 54 platform
48 55 platform
48 56 platform
48 57 platform
48 58 platform
48 59 platform
49 20 platform
49 21 platform
49 22 platform
49 23 platform
49 24 platform
49 25 platform
49 26 platform
49 27 platform
49 28 platform
49 29 platform
49 30 platform
49 31 platform
49 32 platform
49 33 platform
49 34 platform
49 35 
49 36 
49 37 
49 38 
49 39 
49 40 
49 41 
49 42 platform
49 43 platform
49 44 platform
49 45 platform
49 46 platform
49 47 platform
49 48 platform
49 49 platform
49 50 platform
49 51 platform
49 52 platform
49 53 platform
49 54 platform
49 55 platform
49 56 platform
49 57 platform
49 58 platform
49 59 platform
50 20 platform
50 21 platform
50 22 platform
50 23 platform
50 24 platform
50 25 platform
50 26 platform
50 27 platform
50 28 platform
50 29 platform
50 30 platform
50 31 platform
50 32 platform
50 33 platform
50 34 platform
50 35 
50 36 
50 37 
50 38 
50 39 
50 40 
50 41 
50 42 water
50 43 water
50 44 water
50 45 platform
50 46 platform
50 47 platform
50 48 platform
50 49 platform
50 50 platform
50 51 platform
50 52 platform
50 53 platform
50 54 platform
50 55 platform
50 56 platform
50 57 platform
50 58 platform
50 59 platform
51 20 platform
51 21 platform
51 22 platform
51 23 platform
51 24 platform
51 25 platform
51 26 platform
51 27 platform
51 28 platform
51 29 platform
51 30 platform
51 31 platform
51 32 platform
51 33 platform
51 34 platform
51 35 
51 36 
51 37 
51 38 
51 39 
51 40 
51 41 
51 42 water
51 43 water
51 44 water
51 45 platform
51 46 platform
51 47 platform
51 48 platform
51 49 platform
51 50 platform
51 51 platform
51 52 platform
51 53 platform
51 54 platform
51 55 platform
51 56 platform
51 57 platform
51 58 platform
51 59 platform
52 20 platform
52 21 platform
52 22 platform
52 23 platform
52 24 platform
52 25 platform
52 26 platform
52 27 platform
52 28 platform
52 29 platform
52 30 platform
52 31 platform
52 32 platform
52 33 platform
52 34 platform
52 35 
52 36 
52 37 
52 38 
52 39 
52 40 
52 41 
52 42 water
52 43 water
52 44 water
52 45 platform
52 46 platform
52 47 platform
52 48 platform
52 49 platform
52 50 platform
52 51 platform
52 52 platform
52 53 platform
52 54 platform
52 55 platform
52 56 platform
52 57 platform
52 58 platform
52 59 platform
53 20 platform
53 21 platform
53 22 platform
53 23 platform
53 24 platform
53 25 platform
53 26 platform
53 27 platform
53 28 platform
53 29 platform
53 30 platform
53 31 platform
53 32 platform
53 33 platform
53 34 platform
53 35 
53 36 
53 37 
53 38 
53 39 
53 40 
53 41 
53 42 water
53 43 water
53 44 water
53 45 platform
53 46 platform
53 47 platform
53 48 platform
53 49 platform
53 50 platform
53 51 platform
53 52 platform
53 53 platform
53 54 platform
53 55 platform
53 56 platform
53 57 platform
53 58 platform
53 59 platform
54 20 platform
54 21 platform
54 22 platform
54 23 platform
54 24 platform
54 25 platform
54 26 platform
54 27 platform
54 28 platform
54 29 platform
54 30 SteveDoor
54 31 SteveDoor
54 32 SteveDoor
54 33 SteveDoor
54 34 platform
54 35 
54 36 
54 37 
54 38 
54 39 
54 40 
54 41 
54 42 water
54 43 water
54 44 water
54 45 platform
54 46 platform
54 47 platform
54 48 platform
54 49 platform
54 50 platform
54 51 platform
54 52 platform
54 53 platform
54 54 platform
54 55 platform
54 56 platform
54 57 platform
54 58 platform
54 59 platform
55 20 platform
55 21 platform
55 22 platform
55 23 platform
55 24 platform
55 25 platform
55 26 platform
55 27 platform
55 28 platform
55 29 platform
55 30 
55 31 
55 32 
55 33 
55 34 platform
55 35 
55 36 
55 37 
55 38 
55 39 
55 40 
55 41 
55 42 water
55 43 water
55 44 water
55 45 platform
55 46 platform
55 47 platform
55 48 platform
55 49 platform
55 50 platform
55 51 platform
55 52 platform
55 53 platform
55 54 platform
55 55 platform
55 56 platform
55 57 platform
55 58 platform
55 59 platform
56 20 platform
56 21 platform
56 22 platform
56 23 platform
56 24 platform
56 25 platform
56 26 platform
56 27 platform
56 28 platform
56 29 platform
56 30 
56 31 
56 32 
56 33 
56 34 platform
56 35 
56 36 
56 37 
56 38 
56 39 
56 40 
56 41 
56 42 water
56 43 water
56 44 water
56 45 platform
56 46 platform
56 47 platform
56 48 platform
56 49 platform
56 50 platform
56 51 platform
56 52 platform
56 53 platform
56 54 platform
56 55 platform
56 56 platform
56 57 platform
56 58 platform
56 59 platform
57 20 platform
57 21 platform
57 22 platform
57 23 platform
57 24 platform
57 25 platform
57 26 platform
57 27 platform
57 28 platform
57 29 platform
57 30 
57 31 
57 32 
57 33 
57 34 platform
57 35 
57 36 
57 37 
57 38 
57 39 
57 40 
57 41 
57 42 water
57 43 water
57 44 water
57 45 platform
57 46 platform
57 47 platform
57 48 platform
57 49 platform
57 50 platform
57 51 platform
57 52 platform
57 53 platform
57 54 platform
57 55 platform
57 56 platform
57 57 platform
57 58 platform
57 59 platform
58 20 platform
58 21 platform
58 22 platform
58 23 platform
58 24 platform
58 25 platform
58 26 platform
58 27 platform
58 28 platform
58 29 platform
58 30 
58 31 
58 32 
58 33 coin
58 34 platform
58 35 
58 36 
58 37 
58 38 
58 39 
58 40 
58 41 
58 42 water
58 43 water
58 44 water
58 45 platform
58 46 platform
58 47 platform
58 48 platform
58 49 platform
58 50 platform
58 51 platform
58 52 platform
58 53 platform
58 54 platform
58 55 platform
58 56 platform
58 57 platform
58 58 platform
58 59 platform
59 20 platform
59 21 platform
59 22 platform
59 23 platform
59 24 platform
59 25 platform
59 26 platform
59 27 platform
59 28 platform
59 29 platform
59 30 
59 31 
59 32 
59 33 coin
59 34 coin
59 35 
59 36 
59 37 
59 38 
59 39 spike
59 40 spike
59 41 spike
59 42 water
59 43 water
59 44 water
59 45 platform
59 46 platform
59 47 platform
59 48 platform
59 49 platform
59 50 platform
59 51 platform
59 52 platform
59 53 platform
59 54 platform
59 55 platform
59 56 platform
59 57 platform
59 58 platform
59 59 platform
60 20 platform
60 21 platform
60 22 platform
60 23 platform
60 24 platform
60 25 platform
60 26 platform
60 27 platform
60 28 platform
60 29 platform
60 30 
60 31 
60 32 
60 33 
60 34 coin
60 35 coin
60 36 coin
60 37 coin
60 38 coin
60 39 coin
60 40 coin
60 41 coin
60 42 water
60 43 water
60 44 water
60 45 platform
60 46 platform
60 47 platform
60 48 platform
60 49 platform
60 50 platform
60 51 platform
60 52 platform
60 53 platform
60 54 platform
60 55 platform
60 56 platform
60 57 platform
60 58 platform
60 59 platform
61 20 platform
61 21 platform
61 22 platform
61 23 platform
61 24 platform
61 25 platform
61 26 platform
61 27 platform
61 28 platform
61 29 platform
61 30 
61 31 
61 32 
61 33 
61 34 coin
61 35 coin
61 36 coin
61 37 coin
61 38 coin
61 39 coin
61 40 coin
61 41 coin
61 42 water
61 43 water
61 44 water
61 45 platform
61 46 platform
61 47 platform
61 48 platform
61 49 platform
61 50 platform
61 51 platform
61 52 platform
61 53 platform
61 54 platform
61 55 platform
61 56 platform
61 57 platform
61 58 platform
61 59 platform
62 20 platform
62 21 platform
62 22 platform
62 23 platform
62 24 platform
62 25 platform
62 26 platform
62 27 platform
62 28 platform
62 29 platform
62 30 
62 31 
62 32 
62 33 coin
62 34 coin
62 35 
62 36 
62 37 
62 38 
62 39 spike
62 40 spike
62 41 spike
62 42 water
62 43 water
62 44 water
62 45 platform
62 46 platform
62 47 platform
62 48 platform
62 49 platform
62 50 platform
62 51 platform
62 52 platform
62 53 platform
62 54 platform
62 55 platform
62 56 platform
62 57 platform
62 58 platform
62 59 platform
63 20 platform
63 21 platform
63 22 platform
63 23 platform
63 24 platform
63 25 platform
63 26 platform
63 27 platform
63 28 platform
63 29 platform
63 30 
63 31 
63 32 
63 33 coin
63 34 platform
63 35 
63 36 
63 37 
63 38 
63 39 
63 40 
63 41 
63 42 water
63 43 water
63 44 water
63 45 platform
63 46 platform
63 47 platform
63 48 platform
63 49 platform
63 50 platform
63 51 platform
63 52 platform
63 53 platform
63 54 platform
63 55 platform
63 56 platform
63 57 platform
63 58 platform
63 59 platform
64 20 platform
64 21 platform
64 22 platform
64 23 platform
64 24 platform
64 25 platform
64 26 platform
64 27 platform
64 28 platform
64 29 platform
64 30 
64 31 
64 32 
64 33 
64 34 platform
64 35 
64 36 
64 37 
64 38 
64 39 
64 40 
64 41 
64 42 water
64 43 water
64 44 water
64 45 platform
64 46 platform
64 47 platform
64 48 platform
64 49 platform
64 50 platform
64 51 platform
64 52 platform
64 53 platform
64 54 platform
64 55 platform
64 56 platform
64 57 platform
64 58 platform
64 59 platform
65 20 platform
65 21 platform
65 22 platform
65 23 platform
65 24 platform
65 25 platform
65 26 platform
65 27 platform
65 28 platform
65 29 platform
65 30 
65 31 
65 32 
65 33 
65 34 platform
65 35 
65 36 
65 37 
65 38 
65 39 
65 40 
65 41 
65 42 water
65 43 water
65 44 water
65 45 platform
65 46 platform
65 47 platform
65 48 platform
65 49 platform
65 50 platform
65 51 platform
65 52 platform
65 53 platform
65 54 platform
65 55 platform
65 56 platform
65 57 platform
65 58 platform
65 59 platform
66 20 platform
66 21 platform
66 22 platform
66 23 platform
66 24 platform
66 25 platform
66 26 platform
66 27 platform
66 28 platform
66 29 platform
66 30 
66 31 
66 32 
66 33 
66 34 platform
66 35 
66 36 
66 37 
66 38 
66 39 
66 40 
66 41 
66 42 water
66 43 water
66 44 platform
66 45 platform
66 46 platform
66 47 platform
66 48 platform
66 49 platform
66 50 platform
66 51 platform
66 52 platform
66 53 platform
66 54 platform
66 55 platform
66 56 platform
66 57 platform
66 58 platform
66 59 platform
67 20 platform
67 21 platform
67 22 platform
67 23 platform
67 24 platform
67 25 platform
67 26 platform
67 27 platform
67 28 platform
67 29 platform
67 30 
67 31 
67 32 
67 33 
67 34 platform
67 35 
67 36 
67 37 
67 38 
67 39 
67 40 
67 41 
67 42 water
67 43 platform
67 44 platform
67 45 platform
67 46 platform
67 47 platform
67 48 platform
67 49 platform
67 50 platform
67 51 platform
67 52 platform
67 53 platform
67 54 platform
67 55 platform
67 56 platform
67 57 platform
67 58 platform
67 59 platform
68 20 platform
68 21 platform
68 22 platform
68 23 platform
68 24 platform
68 25 platform
68 26 platform
68 27 platform
68 28 platform
68 29 platform
68 30 
68 31 
68 32 
68 33 
68 34 platform
68 35 
68 36 
68 37 
68 38 
68 39 BrickDoor
68 40 BrickDoor
68 41 BrickDoor
68 42 platform
68 43 platform
68 44 platform
68 45 platform
68 46 platform
68 47 platform
68 48 platform
68 49 platform
68 50 platform
68 51 platform
68 52 platform
68 53 platform
68 54 platform
68 55 platform
68 56 platform
68 57 platform
68 58 platform
68 59 platform
69 20 platform
69 21 platform
69 22 platform
69 23 platform
69 24 platform
69 25 platform
69 26 platform
69 27 platform
69 28 platform
69 29 platform
69 30 
69 31 
69 32 
69 33 
69 34 platform
69 35 
69 36 
69 37 
69 38 
69 39 BrickDoor
69 40 BrickDoor
69 41 BrickDoor
69 42 platform
69 43 platform
69 44 platform
69 45 platform
69 46 platform
69 47 platform
69 48 platform
69 49 platform
69 50 platform
69 51 platform
69 52 platform
69 53 platform
69 54 platform
69 55 platform
69 56 platform
69 57 platform
69 58 platform
69 59 platform
70 20 platform
70 21 platform
70 22 platform
70 23 platform
70 24 platform
70 25 platform
70 26 platform
70 27 platform
70 28 platform
70 29 
70 30 
70 31 
70 32 LouDoor
70 33 LouDoor
70 34 platform
70 35 
70 36 
70 37 
70 38 
70 39 BrickDoor
70 40 BrickDoor
70 41 BrickDoor
70 42 platform
70 43 platform
70 44 platform
70 45 platform
70 46 platform
70 47 platform
70 48 platform
70 49 platform
70 50 platform
70 51 platform
70 52 platform
70 53 platform
70 54 platform
70 55 platform
70 56 platform
70 57 platform
70 58 platform
70 59 platform
71 20 platform
71 21 platform
71 22 platform
71 23 platform
71 24 platform
71 25 platform
71 26 platform
71 27 platform
71 28 platform
71 29 
71 30 
71 31 
71 32 LouDoor
71 33 LouDoor
71 34 platform
71 35 
71 36 
71 37 
71 38 
71 39 
71 40 
71 41 
71 42 platform
71 43 platform
71 44 platform
71 45 platform
71 46 platform
71 47 platform
71 48 platform
71 49 platform
71 50 platform
71 51 platform
71 52 platform
71 53 platform
71 54 platform
71 55 platform
71 56 platform
71 57 platform
71 58 platform
71 59 platform
72 20 platform
72 21 platform
72 22 platform
72 23 platform
72 24 platform
72 25 platform
72 26 platform
72 27 platform
72 28 platform
72 29 platform
72 30 platform
72 31 platform
72 32 platform
72 33 platform
72 34 platform
72 35 platform
72 36 platform
72 37 
72 38 
72 39 
72 40 
72 41 
72 42 platform
72 43 platform
72 44 platform
72 45 platform
72 46 platform
72 47 platform
72 48 platform
72 49 platform
72 50 platform
72 51 platform
72 52 platform
72 53 platform
72 54 platform
72 55 platform
72 56 platform
72 57 platform
72 58 platform
72 59 platform
73 20 platform
73 21 platform
73 22 platform
73 23 platform
73 24 platform
73 25 platform
73 26 platform
73 27 platform
73 28 platform
73 29 platform
73 30 platform
73 31 platform
73 32 platform
73 33 platform
73 34 platform
73 35 platform
73 36 platform
73 37 
73 38 
73 39 
73 40 
73 41 
73 42 platform
73 43 platform
73 44 platform
73 45 platform
73 46 platform
73 47 platform
73 48 platform
73 49 platform
73 50 platform
73 51 platform
73 52 platform
73 53 platform
73 54 platform
73 55 platform
73 56 platform
73 57 platform
73 58 platform
73 59 platform
74 20 platform
74 21 platform
74 22 platform
74 23 platform
74 24 platform
74 25 platform
74 26 platform
74 27 platform
74 28 platform
74 29 platform
74 30 platform
74 31 platform
74 32 platform
74 33 platform
74 34 platform
74 35 platform
74 36 platform
74 37 
74 38 
74 39 
74 40 
74 41 
74 42 platform
74 43 platform
74 44 platform
74 45 platform
74 46 platform
74 47 platform
74 48 platform
74 49 platform
74 50 platform
74 51 platform
74 52 platform
74 53 platform
74 54 platform
74 55 platform
74 56 platform
74 57 platform
74 58 platform
74 59 platform
75 20 platform
75 21 platform
75 22 platform
75 23 platform
75 24 platform
75 25 platform
75 26 platform
75 27 platform
75 28 platform
75 29 platform
75 30 platform
75 31 platform
75 32 platform
75 33 platform
75 34 platform
75 35 platform
75 36 platform
75 37 
75 38 
75 39 
75 40 AndyDoor
75 41 AndyDoor
75 42 platform
75 43 platform
75 44 platform
75 45 platform
75 46 platform
75 47 platform
75 48 platform
75 49 platform
75 50 platform
75 51 platform
75 52 platform
75 53 platform
75 54 platform
75 55 platform
75 56 platform
75 57 platform
75 58 platform
75 59 platform
76 20 platform
76 21 platform
76 22 platform
76 23 platform
76 24 platform
76 25 platform
76 26 platform
76 27 platform
76 28 platform
76 29 platform
76 30 platform
76 31 platform
76 32 platform
76 33 platform
76 34 platform
76 35 platform
76 36 platform
76 37 
76 38 
76 39 
76 40 AndyDoor
76 41 AndyDoor
76 42 platform
76 43 platform
76 44 platform
76 45 platform
76 46 platform
76 47 platform
76 48 platform
76 49 platform
76 50 platform
76 51 platform
76 52 platform
76 53 platform
76 54 platform
76 55 platform
76 56 platform
76 57 platform
76 58 platform
76 59 platform
77 20 platform
77 21 platform
77 22 platform
77 23 platform
77 24 platform
77 25 platform
77 26 platform
77 27 platform
77 28 platform
77 29 platform
77 30 platform
77 31 platform
77 32 platform
77 33 platform
77 34 platform
77 35 platform
77 36 platform
77 37 
77 38 
77 39 
77 40 AndyDoor
77 41 AndyDoor
77 42 platform
77 43 platform
77 44 platform
77 45 platform
77 46 platform
77 47 platform
77 48 platform
77 49 platform
77 50 platform
77 51 platform
77 52 platform
77 53 platform
77 54 platform
77 55 platform
77 56 platform
77 57 platform
77 58 platform
77 59 platform
78 20 platform
78 21 platform
78 22 platform
78 23 platform
78 24 platform
78 25 platform
78 26 platform
78 27 platform
78 28 platform
78 29 platform
78 30 platform
78 31 platform
78 32 platform
78 33 platform
78 34 platform
78 35 platform
78 36 platform
78 37 
78 38 
78 39 
78 40 AndyDoor
78 41 AndyDoor
78 42 platform
78 43 platform
78 44 platform
78 45 platform
78 46 platform
78 47 platform
78 48 platform
78 49 platform
78 50 platform
78 51 platform
78 52 platform
78 53 platform
78 54 platform
78 55 platform
78 56 platform
78 57 platform
78 58 platform
78 59 platform
79 20 platform
79 21 platform
79 22 platform
79 23 platform
79 24 platform
79 25 platform
79 26 platform
79 27 platform
79 28 platform
79 29 platform
79 30 platform
79 31 platform
79 32 platform
79 33 platform
79 34 platform
79 35 platform
79 36 platform
79 37 platform
79 38 platform
79 39 platform
79 40 platform
79 41 platform
79 42 platform
79 43 platform
79 44 platform
79 45 platform
79 46 platform
79 47 platform
79 48 platform
79 49 platform
79 50 platform
79 51 platform
79 52 platform
79 53 platform
79 54 platform
79 55 platform
79 56 platform
79 57 platform
79 58 platform
79 59 platform
80 20 platform
80 21 platform
80 22 platform
80 23 platform
80 24 platform
80 25 platform
80 26 platform
80 27 platform
80 28 platform
80 29 platform
80 30 platform
80 31 platform
80 32 platform
80 33 platform
80 34 platform
80 35 platform
80 36 platform
80 37 platform
80 38 platform
80 39 platform
80 40 platform
80 41 platform
80 42 platform
80 43 platform
80 44 platform
80 45 platform
80 46 platform
80 47 platform
80 48 platform
80 49 platform
80 50 platform
80 51 platform
80 52 platform
80 53 platform
80 54 platform
80 55 platform
80 56 platform
80 57 platform
80 58 platform
80 59 platform
81 20 platform
81 21 platform
81 22 platform
81 23 platform
81 24 platform
81 25 platform
81 26 platform
81 27 platform
81 28 platform
81 29 platform
81 30 platform
81 31 platform
81 32 platform
81 33 platform
81 34 platform
81 35 platform
81 36 platform
81 37 platform
81 38 platform
81 39 platform
81 40 platform
81 41 platform
81 42 platform
81 43 platform
81 44 platform
81 45 platform
81 46 platform
81 47 platform
81 48 platform
81 49 platform
81 50 platform
81 51 platform
81 52 platform
81 53 platform
81 54 platform
81 55 platform
81 56 platform
81 57 platform
81 58 platform
81 59 platform
82 20 platform
82 21 platform
82 22 platform
82 23 platform
82 24 platform
82 25 platform
82 26 platform
82 27 platform
82 28 platform
82 29 platform
82 30 platform
82 31 platform
82 32 platform
82 33 platform
82 34 platform
82 35 platform
82 36 platform
82 37 platform
82 38 platform
82 39 platform
82 40 platform
82 41 platform
82 42 platform
82 43 platform
82 44 platform
82 45 platform
82 46 platform
82 47 platform
82 48 platform
82 49 platform
82 50 platform
82 51 platform
82 52 platform
82 53 platform
82 54 platform
82 55 platform
82 56 platform
82 57 platform
82 58 platform
82 59 platform
83 20 platform
83 21 platform
83 22 platform
83 23 platform
83 24 platform
83 25 platform
83 26 platform
83 27 platform
83 28 platform
83 29 platform
83 30 platform
83 31 platform
83 32 platform
83 33 platform
83 34 platform
83 35 platform
83 36 platform
83 37 platform
83 38 platform
83 39 platform
83 40 platform
83 41 platform
83 42 platform
83 43 platform
83 44 platform
83 45 platform
83 46 platform
83 47 platform
83 48 platform
83 49 platform
83 50 platform
83 51 platform
83 52 platform
83 53 platform
83 54 platform
83 55 platform
83 56 platform
83 57 platform
83 58 platform
83 59 platform
84 20 platform
84 21 platform
84 22 platform
84 23 platform
84 24 platform
84 25 platform
84 26 platform
84 27 platform
84 28 platform
84 29 platform
84 30 platform
84 31 platform
84 32 platform
84 33 platform
84 34 platform
84 35 platform
84 36 platform
84 37 platform
84 38 platform
84 39 platform
84 40 platform
84 41 platform
84 42 platform
84 43 platform
84 44 platform
84 45 platform
84 46 platform
84 47 platform
84 48 platform
84 49 platform
84 50 platform
84 51 platform
84 52 platform
84 53 platform
84 54 platform
84 55 platform
84 56 platform
84 57 platform
84 58 platform
84 59 platform
85 20 platform
85 21 platform
85 22 platform
85 23 platform
85 24 platform
85 25 platform
85 26 platform
85 27 platform
85 28 platform
85 29 platform
85 30 platform
85 31 platform
85 32 platform
85 33 platform
85 34 platform
85 35 platform
85 36 platform
85 37 platform
85 38 platform
85 39 platform
85 40 platform
85 41 platform
85 42 platform
85 43 platform
85 44 platform
85 45 platform
85 46 platform
85 47 platform
85 48 platform
85 49 platform
85 50 platform
85 51 platform
85 52 platform
85 53 platform
85 54 platform
85 55 platform
85 56 platform
85 57 platform
85 58 platform
85 59 platform
86 20 platform
86 21 platform
86 22 platform
86 23 platform
86 24 platform
86 25 platform
86 26 platform
86 27 platform
86 28 platform
86 29 platform
86 30 platform
86 31 platform
86 32 platform
86 33 platform
86 34 platform
86 35 platform
86 36 platform
86 37 platform
86 38 platform
86 39 platform
86 40 platform
86 41 platform
86 42 platform
86 43 platform
86 44 platform
86 45 platform
86 46 platform
86 47 platform
86 48 platform
86 49 platform
86 50 platform
86 51 platform
86 52 platform
86 53 platform
86 54 platform
86 55 platform
86 56 platform
86 57 platform
86 58 platform
86 59 platform
87 20 platform
87 21 platform
87 22 platform
87 23 platform
87 24 platform
87 25 platform
87 26 platform
87 27 platform
87 28 platform
87 29 platform
87 30 platform
87 31 platform
87 32 platform
87 33 platform
87 34 platform
87 35 platform
87 36 platform
87 37 platform
87 38 platform
87 39 platform
87 40 platform
87 41 platform
87 42 platform
87 43 platform
87 44 platform
87 45 platform
87 46 platform
87 47 platform
87 48 platform
87 49 platform
87 50 platform
87 51 platform
87 52 platform
87 53 platform
87 54 platform
87 55 platform
87 56 platform
87 57 platform
87 58 platform
87 59 platform
88 20 platform
88 21 platform
88 22 platform
88 23 platform
88 24 platform
88 25 platform
88 26 platform
88 27 platform
88 28 platform
88 29 platform
88 30 platform
88 31 platform
88 32 platform
88 33 platform
88 34 platform
88 35 platform
88 36 platform
88 37 platform
88 38 platform
88 39 platform
88 40 platform
88 41 platform
88 42 platform
88 43 platform
88 44 platform
88 45 platform
88 46 platform
88 47 platform
88 48 platform
88 49 platform
88 50 platform
88 51 platform
88 52 platform
88 53 platform
88 54 platform
88 55 platform
88 56 platform
88 57 platform
88 58 platform
88 59 platform
89 20 platform
89 21 platform
89 22 platform
89 23 platform
89 24 platform
89 25 platform
89 26 platform
89 27 platform
89 28 platform
89 29 platform
89 30 platform
89 31 platform
89 32 platform
89 33 platform
89 34 platform
89 35 platform
89 36 platform
89 37 platform
89 38 platform
89 39 platform
89 40 platform
89 41 platform
89 42 platform
89 43 platform
89 44 platform
89 45 platform
89 46 platform
89 47 platform
89 48 platform
89 49 platform
89 50 platform
89 51 platform
89 52 platform
89 53 platform
89 54 platform
89 55 platform
89 56 platform
89 57 platform
89 58 platform
89 59 platform
